%!PS-Adobe-2.0 EPSF-2.0
%%BoundingBox: 0 0 567 709
%%Title: /data/l3/rosier/suspec/comb/chargino_mass_limit.eps
%%Creator: HIGZ Version 1.26/04
%%CreationDate: 2001/02/22   17.09
%%EndComments
%%BeginProlog
80 dict begin
/s {stroke} def /l {lineto} def /m {moveto} def /t {translate} def
/sw {stringwidth} def /r {rotate} def /rl {roll}  def /R {repeat} def
/d {rlineto} def /rm {rmoveto} def /gr {grestore} def /f {eofill} def
/c {setrgbcolor} def /lw {setlinewidth} def /sd {setdash} def
/cl {closepath} def /sf {scalefont setfont} def /black {0 setgray} def
/box {m dup 0 exch d exch 0 d 0 exch neg d cl} def
/NC{systemdict begin initclip end}def/C{NC box clip newpath}def
/bl {box s} def /bf {box f} def /Y { 0 exch d} def /X { 0 d} def 
/mp {newpath /y exch def /x exch def} def
/side {[w .77 mul w .23 mul] .385 w mul sd w 0 l currentpoint t -144 r} def
/mr {mp x y w2 0 360 arc} def /m24 {mr s} def /m20 {mr f} def
/mb {mp x y w2 add m w2 neg 0 d 0 w neg d w 0 d 0 w d cl} def
/mt {mp x y w2 add m w2 neg w neg d w 0 d cl} def
/m21 {mb f} def /m25 {mb s} def /m22 {mt f} def /m26{mt s} def
/m23 {mp x y w2 sub m w2 w d w neg 0 d cl f} def
/m27 {mp x y w2 add m w3 neg w2 neg d w3 w2 neg d w3 w2 d cl s} def
/m28 {mp x w2 sub y w2 sub w3 add m w3 0 d 0 w3 neg d w3 0 d 0 w3 d w3 0 d
 0 w3 d w3 neg 0 d 0 w3 d w3 neg 0 d
 0 w3 neg d w3 neg 0 d cl s } def
/m29 {mp gsave x w2 sub y w2 add w3 sub m currentpoint t
 4 {side} repeat cl fill gr} def
/m30 {mp gsave x w2 sub y w2 add w3 sub m currentpoint t
 5 {side} repeat s gr} def
/m31 {mp x y w2 sub m 0 w d x w2 sub y m w 0 d
 x w2 sub y w2 add m w w neg d x w2 sub y w2
 sub m w w d s} def
/m2 {mp x y w2 sub m 0 w d x w2 sub y m w 0 d s} def
/m5 {mp x w2 sub y w2 sub m w w d x w2 sub y w2 add m w w neg d s} def
/reencdict 24 dict def /ReEncode {reencdict begin /nco&na exch def
/nfnam exch def /basefontname exch def /basefontdict basefontname findfont def
/newfont basefontdict maxlength dict def basefontdict {exch dup /FID ne
{dup /Encoding eq {exch dup length array copy newfont 3 1 roll put} {exch
newfont 3 1 roll put} ifelse} {pop pop} ifelse } forall newfont
/FontName nfnam put nco&na aload pop nco&na length 2 idiv {newfont
/Encoding get 3 1 roll put} repeat nfnam newfont definefont pop end } def
/accvec [ 176 /agrave 181 /Agrave 190 /acircumflex 192 /Acircumflex
201 /adieresis 204 /Adieresis 209 /ccedilla 210 /Ccedilla 211 /eacute
212 /Eacute 213 /egrave 214 /Egrave 215 /ecircumflex 216 /Ecircumflex
217 /edieresis 218 /Edieresis 219 /icircumflex 220 /Icircumflex
221 /idieresis 222 /Idieresis 223 /ntilde 224 /Ntilde 226 /ocircumflex
228 /Ocircumflex 229 /odieresis 230 /Odieresis 231 /ucircumflex 236 /Ucircumflex
237 /udieresis 238 /Udieresis 239 /aring 242 /Aring 243 /ydieresis
244 /Ydieresis 246 /aacute 247 /Aacute 252 /ugrave 253 /Ugrave] def
/Times-Roman /Times-Roman accvec ReEncode
/Times-Italic /Times-Italic accvec ReEncode
/Times-Bold /Times-Bold accvec ReEncode
/Times-BoldItalic /Times-BoldItalic accvec ReEncode
/Helvetica /Helvetica accvec ReEncode
/Helvetica-Oblique /Helvetica-Oblique accvec ReEncode
/Helvetica-Bold /Helvetica-Bold accvec ReEncode
/Helvetica-BoldOblique /Helvetica-BoldOblique  accvec ReEncode
/Courier /Courier accvec ReEncode
/Courier-Oblique /Courier-Oblique accvec ReEncode
/Courier-Bold /Courier-Bold accvec ReEncode
/Courier-BoldOblique /Courier-BoldOblique accvec ReEncode
/oshow {gsave [] 0 sd true charpath stroke gr} def
/stwn { /fs exch def /fn exch def /text exch def fn findfont fs sf
 text sw pop xs add /xs exch def} def
/stwb { /fs exch def /fn exch def /nbas exch def /textf exch def
textf length /tlen exch def nbas tlen gt {/nbas tlendef} if
fn findfont fs sf textf dup length nbas sub nbas getinterval sw
pop neg xs add /xs exch def} def
/accspe [ 65 /plusminus 66 /bar 67 /existential 68 /universal
69 /exclam 70 /numbersign 71 /greater 72 /question 73 /integral
74 /colon 75 /semicolon 76 /less 77 /bracketleft 78 /bracketright
79 /greaterequal 80 /braceleft 81 /braceright 82 /radical
83 /spade 84 /heart 85 /diamond 86 /club 87 /lessequal
88 /multiply 89 /percent 90 /infinity 48 /circlemultiply 49 /circleplus
50 /emptyset 51 /lozenge 52 /bullet 53 /arrowright 54 /arrowup
55 /arrowleft 56 /arrowdown 57 /arrowboth 48 /degree 44 /comma 43 /plus
 45 /angle 42 /angleleft 47 /divide 61 /notequal 40 /equivalence 41 /second
 97 /approxequal 98 /congruent 99 /perpendicular 100 /partialdiff 101 /florin
 102 /intersection 103 /union 104 /propersuperset 105 /reflexsuperset
 106 /notsubset 107 /propersubset 108 /reflexsubset 109 /element 110 /notelement
 111 /gradient 112 /logicaland 113 /logicalor 114 /arrowdblboth
 115 /arrowdblleft 116 /arrowdblup 117 /arrowdblright 118 /arrowdbldown
 119 /ampersand 120 /omega1 121 /similar 122 /aleph ] def
/Symbol /Special accspe ReEncode
%%EndProlog
 gsave  .25 .25 scale  gsave 0 0 t black [] 0 sd 1 lw 7 lw 1758 2382 227 227 bl
 1758 2382 227 227 C NC 1 lw 227 227 m 2382 Y s 6 lw 193 227 m 34 X s 210 306 m
 17 X s 210 386 m 17 X s 210 465 m 17 X s 210 545 m 17 X s 193 624 m 34 X s 210
 703 m 17 X s 210 783 m 17 X s 210 862 m 17 X s 210 942 m 17 X s 193 1021 m 34 X
 s 210 1100 m 17 X s 210 1180 m 17 X s 210 1259 m 17 X s 210 1339 m 17 X s 193
 1418 m 34 X s 210 1497 m 17 X s 210 1577 m 17 X s 210 1656 m 17 X s 210 1736 m
 17 X s 193 1815 m 34 X s 210 1894 m 17 X s 210 1974 m 17 X s 210 2053 m 17 X s
 210 2133 m 17 X s 193 2212 m 34 X s 210 2291 m 17 X s 210 2371 m 17 X s 210
 2450 m 17 X s 210 2530 m 17 X s 193 2609 m 34 X s
 /xs 0 def 
(99)
 /Helvetica-Bold     62 stwn 
 gsave  170 204
 t   0 r  xs neg 0 t 0 0 m
 /Helvetica-Bold findfont   62 sf 0    0 m 
(99)
 show 
 gr 
 /xs 0 def 
(100)
 /Helvetica-Bold     62 stwn 
 gsave  170 601
 t   0 r  xs neg 0 t 0 0 m
 /Helvetica-Bold findfont   62 sf 0    0 m 
(100)
 show 
 gr 
 /xs 0 def 
(101)
 /Helvetica-Bold     62 stwn 
 gsave  170 998
 t   0 r  xs neg 0 t 0 0 m
 /Helvetica-Bold findfont   62 sf 0    0 m 
(101)
 show 
 gr 
 /xs 0 def 
(102)
 /Helvetica-Bold     62 stwn 
 gsave  170 1395
 t   0 r  xs neg 0 t 0 0 m
 /Helvetica-Bold findfont   62 sf 0    0 m 
(102)
 show 
 gr 
 /xs 0 def 
(103)
 /Helvetica-Bold     62 stwn 
 gsave  170 1792
 t   0 r  xs neg 0 t 0 0 m
 /Helvetica-Bold findfont   62 sf 0    0 m 
(103)
 show 
 gr 
 /xs 0 def 
(104)
 /Helvetica-Bold     62 stwn 
 gsave  170 2189
 t   0 r  xs neg 0 t 0 0 m
 /Helvetica-Bold findfont   62 sf 0    0 m 
(104)
 show 
 gr 
 /xs 0 def 
(105)
 /Helvetica-Bold     62 stwn 
 gsave  170 2586
 t   0 r  xs neg 0 t 0 0 m
 /Helvetica-Bold findfont   62 sf 0    0 m 
(105)
 show 
 gr  1 lw 227 227 m 1758 X s 6 lw 330 193 m 34 Y s 434 210 m 17 Y s 537 210 m 17
 Y s 641 210 m 17 Y s 744 193 m 34 Y s 847 210 m 17 Y s 951 210 m 17 Y s 1054
 210 m 17 Y s 1158 193 m 34 Y s 1261 210 m 17 Y s 1365 210 m 17 Y s 1468 210 m
 17 Y s 1571 193 m 34 Y s 1675 210 m 17 Y s 1778 210 m 17 Y s 1882 210 m 17 Y s
 1985 193 m 34 Y s 330 193 m 34 Y s
 /xs 0 def 
(200)
 /Helvetica-Bold     62 stwn 
 gsave  330 125
 t   0 r  xs 2 div neg 0 t 0 0 m
 /Helvetica-Bold findfont   62 sf 0    0 m 
(200)
 show 
 gr 
 /xs 0 def 
(400)
 /Helvetica-Bold     62 stwn 
 gsave  744 125
 t   0 r  xs 2 div neg 0 t 0 0 m
 /Helvetica-Bold findfont   62 sf 0    0 m 
(400)
 show 
 gr 
 /xs 0 def 
(600)
 /Helvetica-Bold     62 stwn 
 gsave  1158 125
 t   0 r  xs 2 div neg 0 t 0 0 m
 /Helvetica-Bold findfont   62 sf 0    0 m 
(600)
 show 
 gr 
 /xs 0 def 
(800)
 /Helvetica-Bold     62 stwn 
 gsave  1571 125
 t   0 r  xs 2 div neg 0 t 0 0 m
 /Helvetica-Bold findfont   62 sf 0    0 m 
(800)
 show 
 gr 
 /xs 0 def 
(1000)
 /Helvetica-Bold     62 stwn 
 gsave  1985 125
 t   0 r  xs 2 div neg 0 t 0 0 m
 /Helvetica-Bold findfont   62 sf 0    0 m 
(1000)
 show 
 gr  1758 2382 227 227 C NC 1 lw 1985 227 m 2382 Y s 6 lw 1914 227 m 71 X s 1949
 306 m 36 X s 1949 386 m 36 X s 1949 465 m 36 X s 1949 545 m 36 X s 1914 624 m
 71 X s 1949 703 m 36 X s 1949 783 m 36 X s 1949 862 m 36 X s 1949 942 m 36 X s
 1914 1021 m 71 X s 1949 1100 m 36 X s 1949 1180 m 36 X s 1949 1259 m 36 X s
 1949 1339 m 36 X s 1914 1418 m 71 X s 1949 1497 m 36 X s 1949 1577 m 36 X s
 1949 1656 m 36 X s 1949 1736 m 36 X s 1914 1815 m 71 X s 1949 1894 m 36 X s
 1949 1974 m 36 X s 1949 2053 m 36 X s 1949 2133 m 36 X s 1914 2212 m 71 X s
 1949 2291 m 36 X s 1949 2371 m 36 X s 1949 2450 m 36 X s 1949 2530 m 36 X s
 1914 2609 m 71 X s 1 lw 227 2609 m 1758 X s 6 lw 330 2556 m 53 Y s 434 2583 m
 26 Y s 537 2583 m 26 Y s 641 2583 m 26 Y s 744 2556 m 53 Y s 847 2583 m 26 Y s
 951 2583 m 26 Y s 1054 2583 m 26 Y s 1158 2556 m 53 Y s 1261 2583 m 26 Y s 1365
 2583 m 26 Y s 1468 2583 m 26 Y s 1571 2556 m 53 Y s 1675 2583 m 26 Y s 1778
 2583 m 26 Y s 1882 2583 m 26 Y s 1985 2556 m 53 Y s 330 2556 m 53 Y s 1758 2382
 227 227 C 0 1 1 c 1 lw 227 227 m 1572 Y 21 16 d 20 28 d 21 16 d 21 16 d 20 19 d
 207 84 d 21 X 21 16 d 20 X 21 20 d 62 X 21 7 d 103 X 21 8 d 62 X 21 8 d 124 X
 41 8 d 124 X 41 4 d 125 X 41 8 d 248 X 42 8 d 289 X -1838 Y -1758 X f 2269 2836
 0 0 C 1758 2382 227 227 C 2269 2836 0 0 C black
 gsave  744 2178
 t   0 r 0 0 m
 /Special findfont   93 sf 0    0 m 
(R)
 show 
 currentpoint pop 0 t 
 /Helvetica-Bold findfont   93 sf 0    0 m 
(s\040)
 show 
 currentpoint pop 0 t 
 /Special findfont   93 sf 0    0 m 
(G)
 show 
 currentpoint pop 0 t 
 /Helvetica-Bold findfont   93 sf 0    0 m 
( 206.5 GeV)
 show 
 gr  1758 2382 227 227 C 2269 2836 0 0 C 1758 2382 227 227 C 2269 2836 0 0 C
 gsave  330 2178
 t   0 r 0 0 m
 /Helvetica-Bold findfont   93 sf 0    0 m 
(ADLO)
 show 
 gr  1758 2382 227 227 C 8 lw 0 0 1 c 227 227 m 1572 Y 21 16 d 20 28 d 21 16 d
 21 16 d 20 19 d 207 84 d 21 X 21 16 d 20 X 21 20 d 62 X 21 7 d 103 X 21 8 d 62
 X 21 8 d 124 X 41 8 d 124 X 41 4 d 125 X 41 8 d 248 X 42 8 d 289 X -1838 Y s
 2269 2836 0 0 C black
 /xs 0 def 
( M)
 /Helvetica-Bold     93 stwn 
(n)
 /Symbol     93 stwn 
(\040)
 /Helvetica-Bold     65 stwn 
(\040)
 /Helvetica-Bold     65 stwn 
(  \(GeV\))
 /Helvetica-Bold     93 stwn 
 gsave  1106 17
 t   0 r  xs 2 div neg 0 t 0 0 m
 /Helvetica-Bold findfont   93 sf 0    0 m 
( M)
 show 
 currentpoint pop 0 t 
 /Symbol findfont   93 sf 0    0 m 
(n)
 show 
 currentpoint pop 0 t 
/Symbol findfont   93 sf 
(n)
 dup length 1 sub 1 getinterval 
 stringwidth pop 2 div neg    0 rm 
 /Helvetica-Bold findfont   65 sf 0   65 rm 
(\176)
 stringwidth pop 2 div neg 0 rm 
(\176)
 show
 /Helvetica-Bold findfont   65 sf 0  -31 m 
(\040)
 show 
 currentpoint pop 0 t 
/Helvetica-Bold findfont   65 sf 
(\040)
 dup length 1 sub 1 getinterval 
 stringwidth pop 2 div neg    0 rm 
 /Helvetica-Bold findfont   65 sf 0  -65 rm 
(\040)
 stringwidth pop 2 div neg 0 rm 
(\040)
 show
 /Helvetica-Bold findfont   65 sf 0   47 m 
(\040)
 show 
 currentpoint pop 0 t 
 /Helvetica-Bold findfont   93 sf 0    0 m 
(  \(GeV\))
 show 
 gsave  gr  gsave  gr  gr 
 /xs 0 def 
( M)
 /Helvetica-Bold     93 stwn 
(c)
 /Symbol     93 stwn 
(1)
 /Helvetica-Bold     65 stwn 
(  \(GeV\))
 /Helvetica-Bold     93 stwn 
 gsave  74 1418
 t  90 r  xs 2 div neg 0 t 0 0 m
 /Helvetica-Bold findfont   93 sf 0    0 m 
( M)
 show 
 currentpoint pop 0 t 
 /Symbol findfont   93 sf 0    0 m 
(c)
 show 
 currentpoint pop 0 t 
/Symbol findfont   93 sf 
(c)
 dup length 1 sub 1 getinterval 
 stringwidth pop 2 div neg    0 rm 
 /Helvetica-Bold findfont   65 sf 0   65 rm 
(\176)
 stringwidth pop 2 div neg 0 rm 
(\176)
 show
 /Helvetica-Bold findfont   65 sf 0  -31 m 
(1)
 show 
 currentpoint pop 0 t 
/Helvetica-Bold findfont   65 sf 
(1)
 dup length 1 sub 1 getinterval 
 stringwidth pop 2 div neg    0 rm 
 /Helvetica-Bold findfont   65 sf 0   65 rm 
(+)
 stringwidth pop 2 div neg 0 rm 
(+)
 show
 /Helvetica-Bold findfont   93 sf 0    0 m 
(  \(GeV\))
 show 
 gsave  gr  gsave  gr  gr  1758 2382 227 227 C 2269 2836 0 0 C 1758 2382 227 227
 C 2269 2836 0 0 C
 gsave  330 312
 t   0 r 0 0 m
 /Helvetica-Bold findfont   93 sf 0    0 m 
(Excluded at 95)
 show 
 currentpoint pop 0 t 
 /Special findfont   93 sf 0    0 m 
(Y)
 show 
 currentpoint pop 0 t 
 /Helvetica-Bold findfont   93 sf 0    0 m 
( C.L.)
 show 
 gr  1758 2382 227 227 C 2269 2836 0 0 C 1758 2382 227 227 C 2269 2836 0 0 C
 gsave  330 2399
 t   0 r 0 0 m
 /Helvetica-Bold findfont   85 sf 0    0 m 
(tan)
 show 
 currentpoint pop 0 t 
 /Symbol findfont   85 sf 0    0 m 
(b)
 show 
 currentpoint pop 0 t 
 /Helvetica-Bold findfont   85 sf 0    0 m 
(=2      \040)
 show 
 currentpoint pop 0 t 
 /Symbol findfont   85 sf 0    0 m 
(m)
 show 
 currentpoint pop 0 t 
 /Helvetica-Bold findfont   85 sf 0    0 m 
(= -200 GeV)
 show 
 gr  1758 2382 227 227 C NC 1 lw 1985 227 m 2382 Y s 6 lw 1914 227 m 71 X s 1949
 306 m 36 X s 1949 386 m 36 X s 1949 465 m 36 X s 1949 545 m 36 X s 1914 624 m
 71 X s 1949 703 m 36 X s 1949 783 m 36 X s 1949 862 m 36 X s 1949 942 m 36 X s
 1914 1021 m 71 X s 1949 1100 m 36 X s 1949 1180 m 36 X s 1949 1259 m 36 X s
 1949 1339 m 36 X s 1914 1418 m 71 X s 1949 1497 m 36 X s 1949 1577 m 36 X s
 1949 1656 m 36 X s 1949 1736 m 36 X s 1914 1815 m 71 X s 1949 1894 m 36 X s
 1949 1974 m 36 X s 1949 2053 m 36 X s 1949 2133 m 36 X s 1914 2212 m 71 X s
 1949 2291 m 36 X s 1949 2371 m 36 X s 1949 2450 m 36 X s 1949 2530 m 36 X s
 1914 2609 m 71 X s
 gsave  13329 204
 t   0 r 0 0 m
 /Helvetica-Bold findfont   62 sf 0    0 m 
(99)
 show 
 gr 
 gsave  13329 601
 t   0 r 0 0 m
 /Helvetica-Bold findfont   62 sf 0    0 m 
(100)
 show 
 gr 
 gsave  13329 998
 t   0 r 0 0 m
 /Helvetica-Bold findfont   62 sf 0    0 m 
(101)
 show 
 gr 
 gsave  13329 1395
 t   0 r 0 0 m
 /Helvetica-Bold findfont   62 sf 0    0 m 
(102)
 show 
 gr 
 gsave  13329 1792
 t   0 r 0 0 m
 /Helvetica-Bold findfont   62 sf 0    0 m 
(103)
 show 
 gr 
 gsave  13329 2189
 t   0 r 0 0 m
 /Helvetica-Bold findfont   62 sf 0    0 m 
(104)
 show 
 gr 
 gsave  13329 2586
 t   0 r 0 0 m
 /Helvetica-Bold findfont   62 sf 0    0 m 
(105)
 show 
 gr  1 lw 227 2609 m 1758 X s 6 lw 330 2556 m 53 Y s 434 2583 m 26 Y s 537 2583
 m 26 Y s 641 2583 m 26 Y s 744 2556 m 53 Y s 847 2583 m 26 Y s 951 2583 m 26 Y
 s 1054 2583 m 26 Y s 1158 2556 m 53 Y s 1261 2583 m 26 Y s 1365 2583 m 26 Y s
 1468 2583 m 26 Y s 1571 2556 m 53 Y s 1675 2583 m 26 Y s 1778 2583 m 26 Y s
 1882 2583 m 26 Y s 1985 2556 m 53 Y s 330 2556 m 53 Y s
 /xs 0 def 
(200)
 /Helvetica-Bold     62 stwn 
 gsave  330 13953
 t   0 r  xs 2 div neg 0 t 0 0 m
 /Helvetica-Bold findfont   62 sf 0    0 m 
(200)
 show 
 gr 
 /xs 0 def 
(400)
 /Helvetica-Bold     62 stwn 
 gsave  744 13953
 t   0 r  xs 2 div neg 0 t 0 0 m
 /Helvetica-Bold findfont   62 sf 0    0 m 
(400)
 show 
 gr 
 /xs 0 def 
(600)
 /Helvetica-Bold     62 stwn 
 gsave  1158 13953
 t   0 r  xs 2 div neg 0 t 0 0 m
 /Helvetica-Bold findfont   62 sf 0    0 m 
(600)
 show 
 gr 
 /xs 0 def 
(800)
 /Helvetica-Bold     62 stwn 
 gsave  1571 13953
 t   0 r  xs 2 div neg 0 t 0 0 m
 /Helvetica-Bold findfont   62 sf 0    0 m 
(800)
 show 
 gr 
 /xs 0 def 
(1000)
 /Helvetica-Bold     62 stwn 
 gsave  1985 13953
 t   0 r  xs 2 div neg 0 t 0 0 m
 /Helvetica-Bold findfont   62 sf 0    0 m 
(1000)
 show 
 gr  1758 2382 227 227 C
 gr  gr 
showpage
end
%%EOF
