%!PS-Adobe-2.0
%%Title: /big_data/l3/rosier/isr_fortran/tout_mass/mass_adlo (Portrait A 4)
%%Pages: (atend)
%%Creator: HIGZ Version 1.27/03
%%CreationDate: 2002/06/12   17.50
%%EndComments
%%BeginProlog
/s {stroke} def /l {lineto} def /m {moveto} def /t {translate} def
/sw {stringwidth} def /r {rotate} def /rl {roll}  def /R {repeat} def
/d {rlineto} def /rm {rmoveto} def /gr {grestore} def /f {eofill} def
/c {setrgbcolor} def /lw {setlinewidth} def /sd {setdash} def
/cl {closepath} def /sf {scalefont setfont} def /black {0 setgray} def
/box {m dup 0 exch d exch 0 d 0 exch neg d cl} def
/NC{systemdict begin initclip end}def/C{NC box clip newpath}def
/bl {box s} def /bf {box f} def /Y { 0 exch d} def /X { 0 d} def 
/mp {newpath /y exch def /x exch def} def
/side {[w .77 mul w .23 mul] .385 w mul sd w 0 l currentpoint t -144 r} def
/mr {mp x y w2 0 360 arc} def /m24 {mr s} def /m20 {mr f} def
/mb {mp x y w2 add m w2 neg 0 d 0 w neg d w 0 d 0 w d cl} def
/mt {mp x y w2 add m w2 neg w neg d w 0 d cl} def
/m21 {mb f} def /m25 {mb s} def /m22 {mt f} def /m26{mt s} def
/m23 {mp x y w2 sub m w2 w d w neg 0 d cl f} def
/m27 {mp x y w2 add m w3 neg w2 neg d w3 w2 neg d w3 w2 d cl s} def
/m28 {mp x w2 sub y w2 sub w3 add m w3 0 d 0 w3 neg d w3 0 d 0 w3 d w3 0 d
 0 w3 d w3 neg 0 d 0 w3 d w3 neg 0 d
 0 w3 neg d w3 neg 0 d cl s } def
/m29 {mp gsave x w2 sub y w2 add w3 sub m currentpoint t
 4 {side} repeat cl fill gr} def
/m30 {mp gsave x w2 sub y w2 add w3 sub m currentpoint t
 5 {side} repeat s gr} def
/m31 {mp x y w2 sub m 0 w d x w2 sub y m w 0 d
 x w2 sub y w2 add m w w neg d x w2 sub y w2
 sub m w w d s} def
/m2 {mp x y w2 sub m 0 w d x w2 sub y m w 0 d s} def
/m5 {mp x w2 sub y w2 sub m w w d x w2 sub y w2 add m w w neg d s} def
/reencdict 24 dict def /ReEncode {reencdict begin /nco&na exch def
/nfnam exch def /basefontname exch def /basefontdict basefontname findfont def
/newfont basefontdict maxlength dict def basefontdict {exch dup /FID ne
{dup /Encoding eq {exch dup length array copy newfont 3 1 roll put} {exch
newfont 3 1 roll put} ifelse} {pop pop} ifelse } forall newfont
/FontName nfnam put nco&na aload pop nco&na length 2 idiv {newfont
/Encoding get 3 1 roll put} repeat nfnam newfont definefont pop end } def
/accvec [ 176 /agrave 181 /Agrave 190 /acircumflex 192 /Acircumflex
201 /adieresis 204 /Adieresis 209 /ccedilla 210 /Ccedilla 211 /eacute
212 /Eacute 213 /egrave 214 /Egrave 215 /ecircumflex 216 /Ecircumflex
217 /edieresis 218 /Edieresis 219 /icircumflex 220 /Icircumflex
221 /idieresis 222 /Idieresis 223 /ntilde 224 /Ntilde 226 /ocircumflex
228 /Ocircumflex 229 /odieresis 230 /Odieresis 231 /ucircumflex 236 /Ucircumflex
237 /udieresis 238 /Udieresis 239 /aring 242 /Aring 243 /ydieresis
244 /Ydieresis 246 /aacute 247 /Aacute 252 /ugrave 253 /Ugrave] def
/Times-Roman /Times-Roman accvec ReEncode
/Times-Italic /Times-Italic accvec ReEncode
/Times-Bold /Times-Bold accvec ReEncode
/Times-BoldItalic /Times-BoldItalic accvec ReEncode
/Helvetica /Helvetica accvec ReEncode
/Helvetica-Oblique /Helvetica-Oblique accvec ReEncode
/Helvetica-Bold /Helvetica-Bold accvec ReEncode
/Helvetica-BoldOblique /Helvetica-BoldOblique  accvec ReEncode
/Courier /Courier accvec ReEncode
/Courier-Oblique /Courier-Oblique accvec ReEncode
/Courier-Bold /Courier-Bold accvec ReEncode
/Courier-BoldOblique /Courier-BoldOblique accvec ReEncode
/oshow {gsave [] 0 sd true charpath stroke gr} def
/stwn { /fs exch def /fn exch def /text exch def fn findfont fs sf
 text sw pop xs add /xs exch def} def
/stwb { /fs exch def /fn exch def /nbas exch def /textf exch def
textf length /tlen exch def nbas tlen gt {/nbas tlendef} if
fn findfont fs sf textf dup length nbas sub nbas getinterval sw
pop neg xs add /xs exch def} def
/accspe [ 65 /plusminus 66 /bar 67 /existential 68 /universal
69 /exclam 70 /numbersign 71 /greater 72 /question 73 /integral
74 /colon 75 /semicolon 76 /less 77 /bracketleft 78 /bracketright
79 /greaterequal 80 /braceleft 81 /braceright 82 /radical
83 /spade 84 /heart 85 /diamond 86 /club 87 /lessequal
88 /multiply 89 /percent 90 /infinity 48 /circlemultiply 49 /circleplus
50 /emptyset 51 /lozenge 52 /bullet 53 /arrowright 54 /arrowup
55 /arrowleft 56 /arrowdown 57 /arrowboth 48 /degree 44 /comma 43 /plus
 45 /angle 42 /angleleft 47 /divide 61 /notequal 40 /equivalence 41 /second
 97 /approxequal 98 /congruent 99 /perpendicular 100 /partialdiff 101 /florin
 102 /intersection 103 /union 104 /propersuperset 105 /reflexsuperset
 106 /notsubset 107 /propersubset 108 /reflexsubset 109 /element 110 /notelement
 111 /gradient 112 /logicaland 113 /logicalor 114 /arrowdblboth
 115 /arrowdblleft 116 /arrowdblup 117 /arrowdblright 118 /arrowdbldown
 119 /ampersand 120 /omega1 121 /similar 122 /aleph ] def
/Symbol /Special accspe ReEncode
/Zone {/iy exch def /ix exch def  ix 1 sub  2224 mul  1 iy sub  3144
 mul t} def
%%EndProlog
newpath  gsave  20 28 t .25 .25 scale  gsave 
%%Page: number 1
 gsave 
 1 1 Zone
 gsave 0 0 t black [] 0 sd 1 lw 7 lw 1723 2334 222 405 bl 2223 2778 0 183 C 1723
 2334 222 405 C NC 1 lw 222 405 m 2334 Y s 4 lw 206 405 m 16 X s 206 475 m 16 X
 s 206 536 m 16 X s 206 590 m 16 X s 189 638 m 33 X s
 /xs 0 def 
(10)
 /Times-Bold     80 stwn 
 gsave  139 611
 t   0 r  xs neg 0 t 0 0 m
 /Times-Bold findfont   80 sf 0    0 m 
(10)
 show 
 gr 
 /xs 0 def 
(-1)
 /Times-Bold     64 stwn 
 gsave  221 677
 t   0 r  xs neg 0 t 0 0 m
 /Times-Bold findfont   64 sf 0    0 m 
(-1)
 show 
 gr  206 954 m 16 X s 206 1139 m 16 X s 206 1270 m 16 X s 206 1372 m 16 X s 206
 1455 m 16 X s 206 1526 m 16 X s 206 1587 m 16 X s 206 1640 m 16 X s 189 1689 m
 33 X s
 /xs 0 def 
(1)
 /Times-Bold     80 stwn 
 gsave  167 1661
 t   0 r  xs neg 0 t 0 0 m
 /Times-Bold findfont   80 sf 0    0 m 
(1)
 show 
 gr  206 2005 m 16 X s 206 2190 m 16 X s 206 2321 m 16 X s 206 2423 m 16 X s 206
 2506 m 16 X s 206 2576 m 16 X s 206 2637 m 16 X s 206 2691 m 16 X s 189 2739 m
 33 X s
 /xs 0 def 
(10)
 /Times-Bold     80 stwn 
 gsave  167 2712
 t   0 r  xs neg 0 t 0 0 m
 /Times-Bold findfont   80 sf 0    0 m 
(10)
 show 
 gr  1 lw 222 405 m 1723 X s 4 lw 660 372 m 33 Y s 952 388 m 17 Y s 1244 372 m
 33 Y s 1536 388 m 17 Y s 1828 372 m 33 Y s 660 372 m 33 Y s 368 388 m 17 Y s
 1828 372 m 33 Y s
 /xs 0 def 
(60)
 /Times-Bold     80 stwn 
 gsave  660 295
 t   0 r  xs 2 div neg 0 t 0 0 m
 /Times-Bold findfont   80 sf 0    0 m 
(60)
 show 
 gr 
 /xs 0 def 
(80)
 /Times-Bold     80 stwn 
 gsave  1244 295
 t   0 r  xs 2 div neg 0 t 0 0 m
 /Times-Bold findfont   80 sf 0    0 m 
(80)
 show 
 gr 
 /xs 0 def 
(100)
 /Times-Bold     80 stwn 
 gsave  1828 295
 t   0 r  xs 2 div neg 0 t 0 0 m
 /Times-Bold findfont   80 sf 0    0 m 
(100)
 show 
 gr  1723 2334 222 405 C 0 1 1 c 1 lw 222 405 m 1691 X 316 Y -3 37 d 33 Y -152 X
 -128 17 d -27 15 d -11 15 d 6 14 d 3 14 d 11 14 d -20 26 d 41 25 d 3 23 d 5 22
 d 59 22 d 3 20 d 3 19 d 19 Y 8 83 d -26 71 d 15 60 d -3 54 d 9 48 d 32 317 d
 185 Y -29 131 d 93 102 d 50 83 d 23 29 d 18 41 d 2 25 d 6 36 d 6 102 d -17 83 d
 11 70 d 3 61 d 54 Y 3 48 d -1688 X -2334 Y f 7 lw 222 405 m 1691 X 316 Y -3 37
 d 33 Y -152 X -128 17 d -27 15 d -11 15 d 6 14 d 3 14 d 11 14 d -20 26 d 41 25
 d 3 23 d 5 22 d 59 22 d 3 20 d 3 19 d 19 Y 8 83 d -26 71 d 15 60 d -3 54 d 9 48
 d 32 317 d 185 Y -29 131 d 93 102 d 50 83 d 23 29 d 18 41 d 2 25 d 6 36 d 6 102
 d -17 83 d 11 70 d 3 61 d 54 Y 3 48 d -1688 X -2334 Y cl s [12 12] 0 sd 8 lw 0
 0 1 c 1913 405 m 316 Y -3 37 d 33 Y -140 X -131 17 d -30 15 d -17 15 d 6 14 d 3
 14 d 8 14 d 6 26 d 18 25 d 3 23 d 5 22 d 65 22 d 20 Y 3 19 d 19 Y 8 83 d -8 71
 d -3 60 d 54 Y 6 48 d 29 317 d 29 185 d -29 131 d 67 102 d 52 83 d 24 29 d 12
 41 d 5 25 d 3 36 d 6 102 d -23 83 d 9 70 d 5 61 d 3 54 d 48 Y s 398 2172 m 116
 X s 2223 2778 0 183 C black
 /xs 0 def 
(M)
 /Times-Bold    114 stwn 
(c)
 /Symbol    114 stwn 
(1)
 /Times-Bold     80 stwn 
(\(GeV\))
 /Times-Bold    114 stwn 
 gsave  1084 216
 t   0 r  xs 2 div neg 0 t 0 0 m
 /Times-Bold findfont  114 sf 0    0 m 
(M)
 show 
 currentpoint pop 0 t 
 /Symbol findfont  114 sf 0    0 m 
(c)
 show 
 currentpoint pop 0 t 
/Symbol findfont  114 sf 
(c)
 dup length 1 sub 1 getinterval 
 stringwidth pop 2 div neg    0 rm 
 /Times-Bold findfont   80 sf 0   80 rm 
(\176)
 stringwidth pop 2 div neg 0 rm 
(\176)
 show
 /Times-Bold findfont   80 sf 0  -38 m 
(1)
 show 
 currentpoint pop 0 t 
/Times-Bold findfont   80 sf 
(1)
 dup length 1 sub 1 getinterval 
 stringwidth pop 2 div neg    0 rm 
 /Times-Bold findfont   80 sf 0   80 rm 
(+)
 stringwidth pop 2 div neg 0 rm 
(+)
 show
 /Times-Bold findfont  114 sf 0    0 m 
(\(GeV\))
 show 
 gsave  gr  gsave  gr  gr 
 /xs 0 def 
(D)
 /Symbol    114 stwn 
(M \(GeV\))
 /Times-Bold    114 stwn 
 gsave  83 1572
 t  90 r  xs 2 div neg 0 t 0 0 m
 /Symbol findfont  114 sf 0    0 m 
(D)
 show 
 currentpoint pop 0 t 
 /Times-Bold findfont  114 sf 0    0 m 
(M \(GeV\))
 show 
 gr  1723 2334 222 405 C NC [] 0 sd 1 lw 1945 405 m 2334 Y s 4 lw 1910 405 m 35
 X s 1910 475 m 35 X s 1910 536 m 35 X s 1910 590 m 35 X s 1875 638 m 70 X s
 gsave  1973 611
 t   0 r 0 0 m
 /Times-Bold findfont   80 sf 0    0 m 
(10)
 show 
 gr 
 gsave  2110 677
 t   0 r 0 0 m
 /Times-Bold findfont   64 sf 0    0 m 
(-1)
 show 
 gr  1910 954 m 35 X s 1910 1139 m 35 X s 1910 1270 m 35 X s 1910 1372 m 35 X s
 1910 1455 m 35 X s 1910 1526 m 35 X s 1910 1587 m 35 X s 1910 1640 m 35 X s
 1875 1689 m 70 X s
 gsave  2001 1661
 t   0 r 0 0 m
 /Times-Bold findfont   80 sf 0    0 m 
(1)
 show 
 gr  1910 2005 m 35 X s 1910 2190 m 35 X s 1910 2321 m 35 X s 1910 2423 m 35 X s
 1910 2506 m 35 X s 1910 2576 m 35 X s 1910 2637 m 35 X s 1910 2691 m 35 X s
 1875 2739 m 70 X s
 gsave  2001 2712
 t   0 r 0 0 m
 /Times-Bold findfont   80 sf 0    0 m 
(10)
 show 
 gr  1 lw 222 2739 m 1723 X s 4 lw 660 2687 m 52 Y s 952 2713 m 26 Y s 1244 2687
 m 52 Y s 1536 2713 m 26 Y s 1828 2687 m 52 Y s 660 2687 m 52 Y s 368 2713 m 26
 Y s 1828 2687 m 52 Y s
 /xs 0 def 
(60)
 /Times-Bold     80 stwn 
 gsave  660 2795
 t   0 r  xs 2 div neg 0 t 0 0 m
 /Times-Bold findfont   80 sf 0    0 m 
(60)
 show 
 gr 
 /xs 0 def 
(80)
 /Times-Bold     80 stwn 
 gsave  1244 2795
 t   0 r  xs 2 div neg 0 t 0 0 m
 /Times-Bold findfont   80 sf 0    0 m 
(80)
 show 
 gr 
 /xs 0 def 
(100)
 /Times-Bold     80 stwn 
 gsave  1828 2795
 t   0 r  xs 2 div neg 0 t 0 0 m
 /Times-Bold findfont   80 sf 0    0 m 
(100)
 show 
 gr  1723 2334 222 405 C 2223 2778 0 183 C 1723 2334 222 405 C 2223 2778 0 183 C
 gsave  252 2604
 t   0 r 0 0 m
 /Times-Bold findfont   98 sf 0    0 m 
(ADLO preliminary)
 show 
 gr  1723 2334 222 405 C 2223 2778 0 183 C 1723 2334 222 405 C 2223 2778 0 183 C
 gsave  544 2162
 t   0 r 0 0 m
 /Times-Bold findfont   81 sf 0    0 m 
(expected limit)
 show 
 gr  1723 2334 222 405 C 2223 2778 0 183 C 1723 2334 222 405 C 2223 2778 0 183 C
 gsave  252 2478
 t   0 r 0 0 m
 /Times-Bold findfont   81 sf 0    0 m 
(Gaugino - M)
 show 
 currentpoint pop 0 t 
 /Symbol findfont   81 sf 0    0 m 
(n)
 show 
 currentpoint pop 0 t 
/Symbol findfont   81 sf 
(n)
 dup length 1 sub 1 getinterval 
 stringwidth pop 2 div neg    0 rm 
 /Times-Bold findfont   57 sf 0   57 rm 
(\176)
 stringwidth pop 2 div neg 0 rm 
(\176)
 show
 /Times-Bold findfont   81 sf 0    0 m 
(\040)
 show 
 currentpoint pop 0 t 
 /Special findfont   81 sf 0    0 m 
(G)
 show 
 currentpoint pop 0 t 
 /Times-Bold findfont   81 sf 0    0 m 
( 500 GeV)
 show 
 gsave  gr  gr  1723 2334 222 405 C gr 
showpage
 gr 
%%Trailer
%%Pages: 1
 gr  gr 
%%EOF
